0000.004 (0) Opened log file at time: Tue, 17 Apr 2018 07:02:26 +0000 on http://localhost/vacanze-animali
0000.009 (0) UpdraftPlus WordPress backup plugin (https://updraftplus.com): 1.14.4 WP: 4.9.5 PHP: 7.2.3 (apache2handler, Windows NT BEACH-CLIENT1 10.0 build 16299 (Windows 10) i586) MySQL: 5.5.5 WPLANG: it_IT Server: Apache/2.4.29 (Win32) OpenSSL/1.1.0g PHP/7.2.3 safe_mode: 0 max_execution_time: 900 memory_limit: 256M (used: 25.5M | 28M) multisite: N openssl: OpenSSL 1.1.0g  2 Nov 2017 mcrypt: N LANG:  ZipArchive::addFile: Y
0000.013 (0) Free space on disk containing Updraft's temporary directory: 60505.2 MB
0000.021 (0) Tasks: Backup files:  (schedule: manual) Backup DB: 1 (schedule: daily)
0000.025 (0) Processed schedules. Tasks now: Backup files:  Backup DB: 1
0000.035 (0) Requesting semaphore lock (d) (apparently via scheduler: last_scheduled_action_called_at=1523602895, seconds_ago=345652)
0000.050 (0) Set semaphore last lock (d) time to 2018-04-17 07:02:27
0000.054 (0) Semaphore lock (d) complete
0000.067 (0) Backup run: resumption=0, nonce=a45b78c559c1, begun at=1523948546 (1s ago), job type=backup
0000.075 (0) Scheduling a resumption (1) after 300 seconds (1523948847) in case this run gets aborted
0000.093 (0) This backup run is not intended for files - skipping
0000.098 (0) Beginning creation of database dump (WordPress DB)
0000.125 (0) Table va_options: Total expected rows (approximate): 202
0000.140 (0) Table va_options: Total rows added: 198 in 0.01 seconds
0000.145 (0) Table va_options: finishing file (backup_2018-04-17-0902_Vacanze_con_gli_animali_a_Rimini_a45b78c559c1-db-table-va_options.table.gz - 10.8 KB)
0000.163 (0) Table va_users: Total expected rows (approximate): 4
0000.175 (0) Table va_users: Total rows added: 4 in 0.01 seconds
0000.179 (0) Table va_users: finishing file (backup_2018-04-17-0902_Vacanze_con_gli_animali_a_Rimini_a45b78c559c1-db-table-va_users.table.gz - 0.8 KB)
0000.193 (0) Table va_usermeta: Total expected rows (approximate): 82
0000.205 (0) Table va_usermeta: Total rows added: 89 in 0.01 seconds
0000.209 (0) Table va_usermeta: finishing file (backup_2018-04-17-0902_Vacanze_con_gli_animali_a_Rimini_a45b78c559c1-db-table-va_usermeta.table.gz - 2.3 KB)
0000.225 (0) Table va_commentmeta: Total expected rows (approximate): 0
0000.236 (0) Table va_commentmeta: Total rows added: 0 in 0.01 seconds
0000.240 (0) Table va_commentmeta: finishing file (backup_2018-04-17-0902_Vacanze_con_gli_animali_a_Rimini_a45b78c559c1-db-table-va_commentmeta.table.gz - 0.4 KB)
0000.256 (0) Table va_comments: Total expected rows (approximate): 0
0000.268 (0) Table va_comments: Total rows added: 0 in 0.01 seconds
0000.272 (0) Table va_comments: finishing file (backup_2018-04-17-0902_Vacanze_con_gli_animali_a_Rimini_a45b78c559c1-db-table-va_comments.table.gz - 0.5 KB)
0000.290 (0) Table va_links: Total expected rows (approximate): 0
0000.302 (0) Table va_links: Total rows added: 0 in 0.01 seconds
0000.307 (0) Table va_links: finishing file (backup_2018-04-17-0902_Vacanze_con_gli_animali_a_Rimini_a45b78c559c1-db-table-va_links.table.gz - 0.4 KB)
0000.321 (0) Table va_postmeta: Total expected rows (approximate): 934
0000.349 (0) Table va_postmeta: Total rows added: 935 in 0.02 seconds
0000.355 (0) Table va_postmeta: finishing file (backup_2018-04-17-0902_Vacanze_con_gli_animali_a_Rimini_a45b78c559c1-db-table-va_postmeta.table.gz - 12.9 KB)
0000.372 (0) Table va_posts: Total expected rows (approximate): 188
0000.403 (0) Table va_posts: Total rows added: 187 in 0.03 seconds
0000.408 (0) Table va_posts: finishing file (backup_2018-04-17-0902_Vacanze_con_gli_animali_a_Rimini_a45b78c559c1-db-table-va_posts.table.gz - 35.3 KB)
0000.423 (0) Table va_term_relationships: Total expected rows (approximate): 176
0000.436 (0) Table va_term_relationships: Total rows added: 176 in 0.01 seconds
0000.441 (0) Table va_term_relationships: finishing file (backup_2018-04-17-0902_Vacanze_con_gli_animali_a_Rimini_a45b78c559c1-db-table-va_term_relationships.table.gz - 0.8 KB)
0000.456 (0) Table va_term_taxonomy: Total expected rows (approximate): 34
0000.468 (0) Table va_term_taxonomy: Total rows added: 34 in 0.01 seconds
0000.472 (0) Table va_term_taxonomy: finishing file (backup_2018-04-17-0902_Vacanze_con_gli_animali_a_Rimini_a45b78c559c1-db-table-va_term_taxonomy.table.gz - 0.7 KB)
0000.489 (0) Table va_termmeta: Total expected rows (approximate): 8
0000.518 (0) Table va_termmeta: Total rows added: 8 in 0.03 seconds
0000.522 (0) Table va_termmeta: finishing file (backup_2018-04-17-0902_Vacanze_con_gli_animali_a_Rimini_a45b78c559c1-db-table-va_termmeta.table.gz - 0.6 KB)
0000.552 (0) Table va_terms: Total expected rows (approximate): 34
0000.568 (0) Table va_terms: Total rows added: 34 in 0.01 seconds
0000.574 (0) Table va_terms: finishing file (backup_2018-04-17-0902_Vacanze_con_gli_animali_a_Rimini_a45b78c559c1-db-table-va_terms.table.gz - 0.9 KB)
0000.591 (0) Table va_duplicator_packages: Total expected rows (approximate): 0
0000.604 (0) Table va_duplicator_packages: Total rows added: 0 in 0.01 seconds
0000.608 (0) Table va_duplicator_packages: finishing file (backup_2018-04-17-0902_Vacanze_con_gli_animali_a_Rimini_a45b78c559c1-db-table-va_duplicator_packages.table.gz - 0.4 KB)
0000.624 (0) backup_2018-04-17-0902_Vacanze_con_gli_animali_a_Rimini_a45b78c559c1-db-table-va_options.table.gz (1/13): adding to final database dump
0000.629 (0) backup_2018-04-17-0902_Vacanze_con_gli_animali_a_Rimini_a45b78c559c1-db-table-va_users.table.gz (2/13): adding to final database dump
0000.634 (0) backup_2018-04-17-0902_Vacanze_con_gli_animali_a_Rimini_a45b78c559c1-db-table-va_usermeta.table.gz (3/13): adding to final database dump
0000.638 (0) backup_2018-04-17-0902_Vacanze_con_gli_animali_a_Rimini_a45b78c559c1-db-table-va_commentmeta.table.gz (4/13): adding to final database dump
0000.642 (0) backup_2018-04-17-0902_Vacanze_con_gli_animali_a_Rimini_a45b78c559c1-db-table-va_comments.table.gz (5/13): adding to final database dump
0000.646 (0) backup_2018-04-17-0902_Vacanze_con_gli_animali_a_Rimini_a45b78c559c1-db-table-va_links.table.gz (6/13): adding to final database dump
0000.650 (0) backup_2018-04-17-0902_Vacanze_con_gli_animali_a_Rimini_a45b78c559c1-db-table-va_postmeta.table.gz (7/13): adding to final database dump
0000.658 (0) backup_2018-04-17-0902_Vacanze_con_gli_animali_a_Rimini_a45b78c559c1-db-table-va_posts.table.gz (8/13): adding to final database dump
0000.672 (0) backup_2018-04-17-0902_Vacanze_con_gli_animali_a_Rimini_a45b78c559c1-db-table-va_term_relationships.table.gz (9/13): adding to final database dump
0000.676 (0) backup_2018-04-17-0902_Vacanze_con_gli_animali_a_Rimini_a45b78c559c1-db-table-va_term_taxonomy.table.gz (10/13): adding to final database dump
0000.680 (0) backup_2018-04-17-0902_Vacanze_con_gli_animali_a_Rimini_a45b78c559c1-db-table-va_termmeta.table.gz (11/13): adding to final database dump
0000.684 (0) backup_2018-04-17-0902_Vacanze_con_gli_animali_a_Rimini_a45b78c559c1-db-table-va_terms.table.gz (12/13): adding to final database dump
0000.689 (0) backup_2018-04-17-0902_Vacanze_con_gli_animali_a_Rimini_a45b78c559c1-db-table-va_duplicator_packages.table.gz (13/13): adding to final database dump
0000.694 (0) backup_2018-04-17-0902_Vacanze_con_gli_animali_a_Rimini_a45b78c559c1-db.gz: finished writing out complete database file (48 KB)
0000.716 (0) Total database tables backed up: 13 (backup_2018-04-17-0902_Vacanze_con_gli_animali_a_Rimini_a45b78c559c1-db.gz, size: 65714, sha256)
0000.735 (0) backup_2018-04-17-0902_Vacanze_con_gli_animali_a_Rimini_a45b78c559c1-db.gz: db: This file has not yet been successfully uploaded: will queue
0000.738 (0) Saving backup history. Total backup size: 64.2 KB
0000.746 (0) Requesting upload of the files that have not yet been successfully uploaded (1)
0000.757 (0) Cloud backup selection (1/1):  with instance (1/1) (last)
0000.760 (0) No remote despatch: user chose no remote backup service
0000.767 (0) Recording as successfully uploaded: backup_2018-04-17-0902_Vacanze_con_gli_animali_a_Rimini_a45b78c559c1-db.gz (2022e10f55f707cb83ac4e0189465b71)
0000.781 (0) Retain: beginning examination of existing backup sets; user setting: retain_files=2, retain_db=14
0000.786 (0) Number of backup sets in history: 16; groups (db): 1
0000.789 (0) Examining (for databases) backup set with group_id=0, nonce=a45b78c559c1, datestamp=1523948546 (Apr 17 2018 07:02:26)
0000.793 (0) This backup set is the backup set just made, so will not be deleted.
0000.793 (0) Examining (for databases) backup set with group_id=0, nonce=9d78460ced57, datestamp=1523602895 (Apr 13 2018 07:01:35)
0000.793 (0) This backup set remains non-empty (f=0/d=1); will retain in history
0000.796 (0) Examining (for databases) backup set with group_id=0, nonce=f11c320c2ad0, datestamp=1523528786 (Apr 12 2018 10:26:26)
0000.796 (0) This backup set remains non-empty (f=0/d=1); will retain in history
0000.796 (0) Examining (for databases) backup set with group_id=0, nonce=92b11d8b0aa7, datestamp=1523429765 (Apr 11 2018 06:56:05)
0000.796 (0) This backup set remains non-empty (f=0/d=1); will retain in history
0000.797 (0) Examining (for databases) backup set with group_id=0, nonce=ff346a7a2817, datestamp=1522997679 (Apr 06 2018 06:54:39)
0000.797 (0) This backup set remains non-empty (f=0/d=1); will retain in history
0000.797 (0) Examining (for databases) backup set with group_id=0, nonce=3e37883683a1, datestamp=1522913607 (Apr 05 2018 07:33:27)
0000.797 (0) This backup set remains non-empty (f=0/d=1); will retain in history
0000.797 (0) Examining (for databases) backup set with group_id=0, nonce=7382c720ee65, datestamp=1522824949 (Apr 04 2018 06:55:49)
0000.797 (0) This backup set remains non-empty (f=0/d=1); will retain in history
0000.797 (0) Examining (for databases) backup set with group_id=0, nonce=84b2fe5696c5, datestamp=1522393918 (Mar 30 2018 07:11:58)
0000.797 (0) This backup set remains non-empty (f=0/d=1); will retain in history
0000.797 (0) Examining (for databases) backup set with group_id=0, nonce=a3d3f292edc5, datestamp=1522220151 (Mar 28 2018 06:55:51)
0000.797 (0) This backup set remains non-empty (f=0/d=1); will retain in history
0000.797 (0) Examining (for databases) backup set with group_id=0, nonce=6e7eb0f29abf, datestamp=1522134026 (Mar 27 2018 07:00:26)
0000.797 (0) This backup set remains non-empty (f=0/d=1); will retain in history
0000.797 (0) Examining (for databases) backup set with group_id=0, nonce=1fc6b5889b07, datestamp=1522060466 (Mar 26 2018 10:34:26)
0000.797 (0) Examining (for databases) backup set with group_id=0, nonce=434f7bc1d6bc, datestamp=1522048601 (Mar 26 2018 07:16:41)
0000.797 (0) This backup set remains non-empty (f=0/d=1); will retain in history
0000.797 (0) Examining (for databases) backup set with group_id=0, nonce=83040774df60, datestamp=1521198838 (Mar 16 2018 11:13:58)
0000.797 (0) This backup set remains non-empty (f=0/d=1); will retain in history
0000.797 (0) Examining (for databases) backup set with group_id=0, nonce=1f132e9f493f, datestamp=1520929751 (Mar 13 2018 08:29:11)
0000.798 (0) This backup set remains non-empty (f=0/d=1); will retain in history
0000.798 (0) Examining (for databases) backup set with group_id=0, nonce=db11b40e9ccd, datestamp=1520613307 (Mar 09 2018 16:35:07)
0000.798 (0) This backup set remains non-empty (f=0/d=1); will retain in history
0000.798 (0) Examining (for databases) backup set with group_id=0, nonce=28e8362f7d2a, datestamp=1520585409 (Mar 09 2018 08:50:09)
0000.798 (0) 1520585409: db: this set includes a database (backup_2018-03-09-0950_Vacanze_con_gli_animali_a_Rimini_28e8362f7d2a-db.gz); db count is now 14
0000.798 (0) 1520585409: db: over retain limit (14); will delete this database
0000.798 (0) Delete file: backup_2018-03-09-0950_Vacanze_con_gli_animali_a_Rimini_28e8362f7d2a-db.gz, service=none
0000.804 (0) This backup set is now empty; will remove from history
0000.808 (0) Corresponding log file (log.28e8362f7d2a.txt) not found - must have already been deleted
0000.812 (0) Number of backup sets in history: 15; groups (files): 1
0000.815 (0) Examining (for files) backup set with nonce=a45b78c559c1, datestamp=1523948546 (Apr 17 2018 07:02:26)
0000.815 (0) This backup set remains non-empty (f=0/d=1); will retain in history
0000.818 (0) Examining (for files) backup set with nonce=9d78460ced57, datestamp=1523602895 (Apr 13 2018 07:01:35)
0000.818 (0) This backup set remains non-empty (f=0/d=1); will retain in history
0000.818 (0) Examining (for files) backup set with nonce=f11c320c2ad0, datestamp=1523528786 (Apr 12 2018 10:26:26)
0000.818 (0) This backup set remains non-empty (f=0/d=1); will retain in history
0000.818 (0) Examining (for files) backup set with nonce=92b11d8b0aa7, datestamp=1523429765 (Apr 11 2018 06:56:05)
0000.818 (0) This backup set remains non-empty (f=0/d=1); will retain in history
0000.819 (0) Examining (for files) backup set with nonce=ff346a7a2817, datestamp=1522997679 (Apr 06 2018 06:54:39)
0000.819 (0) This backup set remains non-empty (f=0/d=1); will retain in history
0000.819 (0) Examining (for files) backup set with nonce=3e37883683a1, datestamp=1522913607 (Apr 05 2018 07:33:27)
0000.819 (0) This backup set remains non-empty (f=0/d=1); will retain in history
0000.819 (0) Examining (for files) backup set with nonce=7382c720ee65, datestamp=1522824949 (Apr 04 2018 06:55:49)
0000.819 (0) This backup set remains non-empty (f=0/d=1); will retain in history
0000.819 (0) Examining (for files) backup set with nonce=84b2fe5696c5, datestamp=1522393918 (Mar 30 2018 07:11:58)
0000.819 (0) This backup set remains non-empty (f=0/d=1); will retain in history
0000.819 (0) Examining (for files) backup set with nonce=a3d3f292edc5, datestamp=1522220151 (Mar 28 2018 06:55:51)
0000.819 (0) This backup set remains non-empty (f=0/d=1); will retain in history
0000.819 (0) Examining (for files) backup set with nonce=6e7eb0f29abf, datestamp=1522134026 (Mar 27 2018 07:00:26)
0000.819 (0) This backup set remains non-empty (f=0/d=1); will retain in history
0000.819 (0) Examining (for files) backup set with nonce=1fc6b5889b07, datestamp=1522060466 (Mar 26 2018 10:34:26)
0000.819 (0) This backup set remains non-empty (f=1/d=0); will retain in history
0000.823 (0) Examining (for files) backup set with nonce=434f7bc1d6bc, datestamp=1522048601 (Mar 26 2018 07:16:41)
0000.823 (0) This backup set remains non-empty (f=0/d=1); will retain in history
0000.826 (0) Examining (for files) backup set with nonce=83040774df60, datestamp=1521198838 (Mar 16 2018 11:13:58)
0000.826 (0) This backup set remains non-empty (f=0/d=1); will retain in history
0000.826 (0) Examining (for files) backup set with nonce=1f132e9f493f, datestamp=1520929751 (Mar 13 2018 08:29:11)
0000.826 (0) This backup set remains non-empty (f=0/d=1); will retain in history
0000.827 (0) Examining (for files) backup set with nonce=db11b40e9ccd, datestamp=1520613307 (Mar 09 2018 16:35:07)
0000.827 (0) This backup set remains non-empty (f=0/d=1); will retain in history
0000.827 (0) Retain: saving new backup history (sets now: 15) and finishing retain operation
0000.837 (0) Resume backup (a45b78c559c1, 0): finish run
0000.847 (0) Decremented the semaphore (d) by 1
0000.854 (0) Semaphore (d) unlocked
0000.857 (0) There were no errors in the uploads, so the 'resume' event (1) is being unscheduled
0000.891 (0) The backup apparently succeeded and is now complete
0000.897 (0) No email will/can be sent - the user has not configured an email address.
0000.901 (0) Il backup apparentemente è riuscito ed ora è completo
